…
Example:

get_communities(network_1, "cluster_fast_greedy")

## # A tibble: 50 x 4
##    Ind    Ind_Cluster global_modularity method             
##    <chr>        <dbl>             <dbl> <chr>              
##  1 ind_01           3             0.318 cluster_fast_greedy
##  2 ind_02           3             0.318 cluster_fast_greedy
##  3 ind_03           2             0.318 cluster_fast_greedy
##  4 ind_04           3             0.318 cluster_fast_greedy
##  5 ind_05           1             0.318 cluster_fast_greedy
##  6 ind_06           3             0.318 cluster_fast_greedy
##  7 ind_07           3             0.318 cluster_fast_greedy
##  8 ind_08           3             0.318 cluster_fast_greedy
##  9 ind_09           1             0.318 cluster_fast_greedy
## 10 ind_10           3             0.318 cluster_fast_greedy
## # … with 40 more rows
…
